project/ALU/simulation/qsim/alu.msim.vcd
$comment
	File created using the following command:
		vcd file alu.msim.vcd -direction
$end
$date
	Tue Sep 27 09:47:02 2022
$end
$version
	ModelSim Version 10.5b
$end
$timescale
	1ps
$end

$scope module alu_vlg_vec_tst $end
$var reg 5 ! ctrl_ALUopcode [4:0] $end
$var reg 5 " ctrl_shiftamt [4:0] $end
$var reg 32 # data_operandA [31:0] $end
$var reg 32 $ data_operandB [31:0] $end
$var wire 1 % data_result [31] $end
$var wire 1 & data_result [30] $end
$var wire 1 ' data_result [29] $end
$var wire 1 ( data_result [28] $end
$var wire 1 ) data_result [27] $end
$var wire 1 * data_result [26] $end
$var wire 1 + data_result [25] $end
$var wire 1 , data_result [24] $end
$var wire 1 - data_result [23] $end
$var wire 1 . data_result [22] $end
$var wire 1 / data_result [21] $end
$var wire 1 0 data_result [20] $end
$var wire 1 1 data_result [19] $end
$var wire 1 2 data_result [18] $end
$var wire 1 3 data_result [17] $end
$var wire 1 4 data_result [16] $end
$var wire 1 5 data_result [15] $end
$var wire 1 6 data_result [14] $end
$var wire 1 7 data_result [13] $end
$var wire 1 8 data_result [12] $end
$var wire 1 9 data_result [11] $end
$var wire 1 : data_result [10] $end
$var wire 1 ; data_result [9] $end
$var wire 1 < data_result [8] $end
$var wire 1 = data_result [7] $end
$var wire 1 > data_result [6] $end
$var wire 1 ? data_result [5] $end
$var wire 1 @ data_result [4] $end
$var wire 1 A data_result [3] $end
$var wire 1 B data_result [2] $end
$var wire 1 C data_result [1] $end
$var wire 1 D data_result [0] $end
$var wire 1 E isLessThan $end
$var wire 1 F isNotEqual $end
$var wire 1 G overflow $end

$scope module i1 $end
$var wire 1 H gnd $end
$var wire 1 I vcc $end
$var wire 1 J unknown $end
$var tri1 1 K devclrn $end
$var tri1 1 L devpor $end
$var tri1 1 M devoe $end
$var wire 1 N ctrl_ALUopcode[1]~input_o $end
$var wire 1 O ctrl_ALUopcode[2]~input_o $end
$var wire 1 P ctrl_ALUopcode[3]~input_o $end
$var wire 1 Q ctrl_ALUopcode[4]~input_o $end
$var wire 1 R ctrl_shiftamt[0]~input_o $end
$var wire 1 S ctrl_shiftamt[1]~input_o $end
$var wire 1 T ctrl_shiftamt[2]~input_o $end
$var wire 1 U ctrl_shiftamt[3]~input_o $end
$var wire 1 V ctrl_shiftamt[4]~input_o $end
$var wire 1 W data_result[0]~output_o $end
$var wire 1 X data_result[1]~output_o $end
$var wire 1 Y data_result[2]~output_o $end
$var wire 1 Z data_result[3]~output_o $end
$var wire 1 [ data_result[4]~output_o $end
$var wire 1 \ data_result[5]~output_o $end
$var wire 1 ] data_result[6]~output_o $end
$var wire 1 ^ data_result[7]~output_o $end
$var wire 1 _ data_result[8]~output_o $end
$var wire 1 ` data_result[9]~output_o $end
$var wire 1 a data_result[10]~output_o $end
$var wire 1 b data_result[11]~output_o $end
$var wire 1 c data_result[12]~output_o $end
$var wire 1 d data_result[13]~output_o $end
$var wire 1 e data_result[14]~output_o $end
$var wire 1 f data_result[15]~output_o $end
$var wire 1 g data_result[16]~output_o $end
$var wire 1 h data_result[17]~output_o $end
$var wire 1 i data_result[18]~output_o $end
$var wire 1 j data_result[19]~output_o $end
$var wire 1 k data_result[20]~output_o $end
$var wire 1 l data_result[21]~output_o $end
$var wire 1 m data_result[22]~output_o $end
$var wire 1 n data_result[23]~output_o $end
$var wire 1 o data_result[24]~output_o $end
$var wire 1 p data_result[25]~output_o $end
$var wire 1 q data_result[26]~output_o $end
$var wire 1 r data_result[27]~output_o $end
$var wire 1 s data_result[28]~output_o $end
$var wire 1 t data_result[29]~output_o $end
$var wire 1 u data_result[30]~output_o $end
$var wire 1 v data_result[31]~output_o $end
$var wire 1 w isNotEqual~output_o $end
$var wire 1 x isLessThan~output_o $end
$var wire 1 y overflow~output_o $end
$var wire 1 z data_operandA[0]~input_o $end
$var wire 1 { data_operandB[0]~input_o $end
$var wire 1 | add_1|csa_1|csa15_0|rca7_0|p0|Sum~0_combout $end
$var wire 1 } data_operandA[1]~input_o $end
$var wire 1 ~ ctrl_ALUopcode[0]~input_o $end
$var wire 1 !! add_1|csa_1|csa15_0|rca7_0|p0|Cout~0_combout $end
$var wire 1 "! data_operandB[1]~input_o $end
$var wire 1 #! add_1|csa_1|csa15_0|rca7_0|p1|Sum~combout $end
$var wire 1 $! data_operandA[2]~input_o $end
$var wire 1 %! data_operandB[2]~input_o $end
$var wire 1 &! add_1|csa_1|csa15_0|rca7_0|p1|Cout~0_combout $end
$var wire 1 '! add_1|csa_1|csa15_0|rca7_0|p2|Sum~0_combout $end
$var wire 1 (! data_operandA[3]~input_o $end
$var wire 1 )! data_operandB[3]~input_o $end
$var wire 1 *! add_1|csa_1|csa15_0|rca7_0|p2|Cout~0_combout $end
$var wire 1 +! add_1|csa_1|csa15_0|rca7_0|p3|Sum~0_combout $end
$var wire 1 ,! data_operandA[4]~input_o $end
$var wire 1 -! data_operandB[4]~input_o $end
$var wire 1 .! add_1|csa_1|csa15_0|rca7_0|p3|Cout~0_combout $end
$var wire 1 /! add_1|csa_1|csa15_0|rca7_0|p4|Sum~0_combout $end
$var wire 1 0! data_operandA[5]~input_o $end
$var wire 1 1! data_operandB[5]~input_o $end
$var wire 1 2! add_1|csa_1|csa15_0|rca7_0|p4|Cout~0_combout $end
$var wire 1 3! add_1|csa_1|csa15_0|rca7_0|p5|Sum~0_combout $end
$var wire 1 4! data_operandA[6]~input_o $end
$var wire 1 5! data_operandB[6]~input_o $end
$var wire 1 6! add_1|csa_1|csa15_0|rca7_0|p5|Cout~0_combout $end
$var wire 1 7! add_1|csa_1|csa15_0|rca7_0|p6|Sum~0_combout $end
$var wire 1 8! data_operandA[7]~input_o $end
$var wire 1 9! data_operandB[7]~input_o $end
$var wire 1 :! add_1|csa_1|csa15_0|rca7_0|p6|Cout~0_combout $end
$var wire 1 ;! add_1|csa_1|csa15_0|rca7_0|p7|Sum~0_combout $end
$var wire 1 <! data_operandB[8]~input_o $end
$var wire 1 =! data_operandA[8]~input_o $end
$var wire 1 >! add_1|csa_1|csa15_0|rca7_0|p7|Cout~0_combout $end
$var wire 1 ?! add_1|csa_1|csa15_0|S[8]~9_combout $end
$var wire 1 @! add_1|w2[8]~0_combout $end
$var wire 1 A! data_operandA[9]~input_o $end
$var wire 1 B! data_operandB[9]~input_o $end
$var wire 1 C! add_1|csa_1|csa15_0|rca15_8_1|p1|Sum~0_combout $end
$var wire 1 D! add_1|csa_1|csa15_0|S[9]~2_combout $end
$var wire 1 E! add_1|csa_1|csa15_0|rca15_8_0|p0|A1~combout $end
$var wire 1 F! add_1|csa_1|csa15_0|rca15_8_0|p1|Cout~0_combout $end
$var wire 1 G! add_1|w2[9]~1_combout $end
$var wire 1 H! add_1|csa_1|csa15_0|rca15_8_1|p1|Cout~0_combout $end
$var wire 1 I! data_operandA[10]~input_o $end
$var wire 1 J! data_operandB[10]~input_o $end
$var wire 1 K! add_1|csa_1|csa15_0|rca15_8_1|p2|Sum~0_combout $end
$var wire 1 L! add_1|csa_1|csa15_0|S[10]~3_combout $end
$var wire 1 M! add_1|csa_1|csa15_0|rca15_8_0|p2|Cout~0_combout $end
$var wire 1 N! add_1|csa_1|csa15_0|rca15_8_1|p2|Cout~0_combout $end
$var wire 1 O! data_operandA[11]~input_o $end
$var wire 1 P! data_operandB[11]~input_o $end
$var wire 1 Q! add_1|csa_1|csa15_0|rca15_8_1|p3|Sum~0_combout $end
$var wire 1 R! add_1|csa_1|csa15_0|S[11]~4_combout $end
$var wire 1 S! add_1|csa_1|csa15_0|rca15_8_0|p3|Cout~0_combout $end
$var wire 1 T! add_1|csa_1|csa15_0|rca15_8_1|p3|Cout~0_combout $end
$var wire 1 U! data_operandA[12]~input_o $end
$var wire 1 V! data_operandB[12]~input_o $end
$var wire 1 W! add_1|csa_1|csa15_0|rca15_8_1|p4|Sum~0_combout $end
$var wire 1 X! add_1|csa_1|csa15_0|S[12]~5_combout $end
$var wire 1 Y! add_1|csa_1|csa15_0|rca15_8_0|p4|Cout~0_combout $end
$var wire 1 Z! add_1|csa_1|csa15_0|rca15_8_1|p4|Cout~0_combout $end
$var wire 1 [! data_operandA[13]~input_o $end
$var wire 1 \! data_operandB[13]~input_o $end
$var wire 1 ]! add_1|csa_1|csa15_0|rca15_8_1|p5|Sum~0_combout $end
$var wire 1 ^! add_1|csa_1|csa15_0|S[13]~6_combout $end
$var wire 1 _! add_1|csa_1|csa15_0|rca15_8_0|p5|Cout~0_combout $end
$var wire 1 `! add_1|csa_1|csa15_0|rca15_8_1|p5|Cout~0_combout $end
$var wire 1 a! data_operandA[14]~input_o $end
$var wire 1 b! data_operandB[14]~input_o $end
$var wire 1 c! add_1|csa_1|csa15_0|rca15_8_1|p6|Sum~0_combout $end
$var wire 1 d! add_1|csa_1|csa15_0|S[14]~7_combout $end
$var wire 1 e! add_1|csa_1|csa15_0|rca15_8_0|p6|Cout~0_combout $end
$var wire 1 f! add_1|csa_1|csa15_0|rca15_8_1|p6|Cout~0_combout $end
$var wire 1 g! data_operandA[15]~input_o $end
$var wire 1 h! data_operandB[15]~input_o $end
$var wire 1 i! add_1|csa_1|csa15_0|rca15_8_1|p7|Sum~0_combout $end
$var wire 1 j! add_1|csa_1|csa15_0|S[15]~8_combout $end
$var wire 1 k! data_operandB[16]~input_o $end
$var wire 1 l! data_operandA[16]~input_o $end
$var wire 1 m! add_1|csa_1|csa15_0|Co~0_combout $end
$var wire 1 n! add_1|csa_1|csa15_0|Co~1_combout $end
$var wire 1 o! add_1|csa_1|S[16]~18_combout $end
$var wire 1 p! add_1|w2[16]~2_combout $end
$var wire 1 q! data_operandA[17]~input_o $end
$var wire 1 r! data_operandB[17]~input_o $end
$var wire 1 s! add_1|csa_1|csa31_16_1|rca7_0|p1|Sum~0_combout $end
$var wire 1 t! add_1|csa_1|S[17]~2_combout $end
$var wire 1 u! add_1|csa_1|csa31_16_0|rca7_0|p0|A1~combout $end
$var wire 1 v! add_1|csa_1|csa31_16_0|rca7_0|p1|Cout~0_combout $end
$var wire 1 w! add_1|w2[17]~3_combout $end
$var wire 1 x! add_1|csa_1|csa31_16_1|rca7_0|p1|Cout~0_combout $end
$var wire 1 y! data_operandA[18]~input_o $end
$var wire 1 z! data_operandB[18]~input_o $end
$var wire 1 {! add_1|csa_1|csa31_16_1|rca7_0|p2|Sum~0_combout $end
$var wire 1 |! add_1|csa_1|S[18]~3_combout $end
$var wire 1 }! add_1|csa_1|csa31_16_0|rca7_0|p2|Cout~0_combout $end
$var wire 1 ~! add_1|csa_1|csa31_16_1|rca7_0|p2|Cout~0_combout $end
$var wire 1 !" data_operandA[19]~input_o $end
$var wire 1 "" data_operandB[19]~input_o $end
$var wire 1 #" add_1|csa_1|csa31_16_1|rca7_0|p3|Sum~0_combout $end
$var wire 1 $" add_1|csa_1|S[19]~4_combout $end
$var wire 1 %" add_1|csa_1|csa31_16_0|rca7_0|p3|Cout~0_combout $end
$var wire 1 &" add_1|csa_1|csa31_16_1|rca7_0|p3|Cout~0_combout $end
$var wire 1 '" data_operandA[20]~input_o $end
$var wire 1 (" data_operandB[20]~input_o $end
$var wire 1 )" add_1|csa_1|csa31_16_1|rca7_0|p4|Sum~0_combout $end
$var wire 1 *" add_1|csa_1|S[20]~5_combout $end
$var wire 1 +" add_1|csa_1|csa31_16_0|rca7_0|p4|Cout~0_combout $end
$var wire 1 ," add_1|csa_1|csa31_16_1|rca7_0|p4|Cout~0_combout $end
$var wire 1 -" data_operandA[21]~input_o $end
$var wire 1 ." data_operandB[21]~input_o $end
$var wire 1 /" add_1|csa_1|csa31_16_1|rca7_0|p5|Sum~0_combout $end
$var wire 1 0" add_1|csa_1|S[21]~6_combout $end
$var wire 1 1" add_1|csa_1|csa31_16_0|rca7_0|p5|Cout~0_combout $end
$var wire 1 2" add_1|csa_1|csa31_16_1|rca7_0|p5|Cout~0_combout $end
$var wire 1 3" data_operandA[22]~input_o $end
$var wire 1 4" data_operandB[22]~input_o $end
$var wire 1 5" add_1|csa_1|csa31_16_1|rca7_0|p6|Sum~0_combout $end
$var wire 1 6" add_1|csa_1|S[22]~7_combout $end
$var wire 1 7" add_1|csa_1|csa31_16_0|rca7_0|p6|Cout~0_combout $end
$var wire 1 8" add_1|csa_1|csa31_16_1|rca7_0|p6|Cout~0_combout $end
$var wire 1 9" data_operandA[23]~input_o $end
$var wire 1 :" data_operandB[23]~input_o $end
$var wire 1 ;" add_1|csa_1|csa31_16_1|rca7_0|p7|Sum~0_combout $end
$var wire 1 <" add_1|csa_1|S[23]~8_combout $end
$var wire 1 =" add_1|csa_1|csa31_16_0|rca7_0|p7|Cout~0_combout $end
$var wire 1 >" add_1|csa_1|csa31_16_1|rca7_0|p7|Cout~0_combout $end
$var wire 1 ?" data_operandA[24]~input_o $end
$var wire 1 @" data_operandB[24]~input_o $end
$var wire 1 A" add_1|csa_1|csa31_16_1|S[8]~0_combout $end
$var wire 1 B" add_1|csa_1|S[24]~9_combout $end
$var wire 1 C" add_1|w2[24]~4_combout $end
$var wire 1 D" add_1|csa_1|S[25]~10_combout $end
$var wire 1 E" data_operandA[25]~input_o $end
$var wire 1 F" data_operandB[25]~input_o $end
$var wire 1 G" add_1|csa_1|csa31_16_0|rca15_8_1|p1|Sum~0_combout $end
$var wire 1 H" add_1|csa_1|S[25]~11_combout $end
$var wire 1 I" add_1|csa_1|csa31_16_0|rca15_8_0|p0|A1~combout $end
$var wire 1 J" add_1|csa_1|csa31_16_0|rca15_8_0|p1|Cout~0_combout $end
$var wire 1 K" add_1|w2[25]~5_combout $end
$var wire 1 L" add_1|csa_1|csa31_16_0|rca15_8_1|p1|Cout~0_combout $end
$var wire 1 M" data_operandA[26]~input_o $end
$var wire 1 N" data_operandB[26]~input_o $end
$var wire 1 O" add_1|csa_1|csa31_16_0|rca15_8_1|p2|Sum~0_combout $end
$var wire 1 P" add_1|csa_1|S[26]~12_combout $end
$var wire 1 Q" add_1|csa_1|csa31_16_0|rca15_8_0|p2|Cout~0_combout $end
$var wire 1 R" add_1|csa_1|csa31_16_0|rca15_8_1|p2|Cout~0_combout $end
$var wire 1 S" data_operandA[27]~input_o $end
$var wire 1 T" data_operandB[27]~input_o $end
$var wire 1 U" add_1|csa_1|csa31_16_0|rca15_8_1|p3|Sum~0_combout $end
$var wire 1 V" add_1|csa_1|S[27]~13_combout $end
$var wire 1 W" add_1|csa_1|csa31_16_0|rca15_8_0|p3|Cout~0_combout $end
$var wire 1 X" add_1|csa_1|csa31_16_0|rca15_8_1|p3|Cout~0_combout $end
$var wire 1 Y" data_operandA[28]~input_o $end
$var wire 1 Z" data_operandB[28]~input_o $end
$var wire 1 [" add_1|csa_1|csa31_16_0|rca15_8_1|p4|Sum~0_combout $end
$var wire 1 \" add_1|csa_1|S[28]~14_combout $end
$var wire 1 ]" add_1|csa_1|csa31_16_0|rca15_8_0|p4|Cout~0_combout $end
$var wire 1 ^" add_1|csa_1|csa31_16_0|rca15_8_1|p4|Cout~0_combout $end
$var wire 1 _" data_operandA[29]~input_o $end
$var wire 1 `" data_operandB[29]~input_o $end
$var wire 1 a" add_1|csa_1|csa31_16_0|rca15_8_1|p5|Sum~0_combout $end
$var wire 1 b" add_1|csa_1|S[29]~15_combout $end
$var wire 1 c" add_1|csa_1|csa31_16_0|rca15_8_0|p5|Cout~0_combout $end
$var wire 1 d" add_1|csa_1|csa31_16_0|rca15_8_1|p5|Cout~0_combout $end
$var wire 1 e" data_operandA[30]~input_o $end
$var wire 1 f" data_operandB[30]~input_o $end
$var wire 1 g" add_1|csa_1|csa31_16_0|rca15_8_1|p6|Sum~0_combout $end
$var wire 1 h" add_1|csa_1|S[30]~16_combout $end
$var wire 1 i" add_1|csa_1|csa31_16_0|rca15_8_0|p6|Cout~0_combout $end
$var wire 1 j" add_1|csa_1|csa31_16_0|rca15_8_1|p6|Cout~0_combout $end
$var wire 1 k" data_operandA[31]~input_o $end
$var wire 1 l" data_operandB[31]~input_o $end
$var wire 1 m" add_1|csa_1|csa31_16_0|rca15_8_1|p7|Sum~0_combout $end
$var wire 1 n" add_1|csa_1|S[31]~17_combout $end
$var wire 1 o" add_1|Cout~0_combout $end
$var wire 1 p" add_1|Cout~1_combout $end
$upscope $end
$upscope $end
$enddefinitions $end
#0
$dumpvars
b1 !
b0 "
b10000000000000000000000000001111 #
b10000000000000000000000000000000 $
1D
1C
1B
1A
0@
0?
0>
0=
0<
0;
0:
09
08
07
06
05
04
03
02
01
00
0/
0.
0-
0,
0+
0*
0)
0(
0'
0&
0%
0E
0F
0G
0H
1I
xJ
1K
1L
1M
0N
0O
0P
0Q
0R
0S
0T
0U
0V
1W
1X
1Y
1Z
0[
0\
0]
0^
0_
0`
0a
0b
0c
0d
0e
0f
0g
0h
0i
0j
0k
0l
0m
0n
0o
0p
0q
0r
0s
0t
0u
0v
0w
0x
0y
1z
0{
1|
1}
1~
1!!
0"!
1#!
1$!
0%!
1&!
1'!
1(!
0)!
1*!
1+!
0,!
0-!
1.!
0/!
00!
01!
12!
03!
04!
05!
16!
07!
08!
09!
1:!
0;!
0<!
0=!
1>!
0?!
1@!
0A!
0B!
1C!
0D!
0E!
0F!
1G!
1H!
0I!
0J!
1K!
0L!
0M!
1N!
0O!
0P!
1Q!
0R!
0S!
1T!
0U!
0V!
1W!
0X!
0Y!
1Z!
0[!
0\!
1]!
0^!
0_!
1`!
0a!
0b!
1c!
0d!
0e!
1f!
0g!
0h!
1i!
0j!
0k!
0l!
1m!
1n!
0o!
1p!
0q!
0r!
1s!
0t!
0u!
0v!
1w!
1x!
0y!
0z!
1{!
0|!
0}!
1~!
0!"
0""
1#"
0$"
0%"
1&"
0'"
0("
1)"
0*"
0+"
1,"
0-"
0."
1/"
00"
01"
12"
03"
04"
15"
06"
07"
18"
09"
0:"
1;"
0<"
0="
1>"
0?"
0@"
1A"
0B"
1C"
1D"
0E"
0F"
1G"
0H"
0I"
0J"
1K"
1L"
0M"
0N"
1O"
0P"
0Q"
1R"
0S"
0T"
1U"
0V"
0W"
1X"
0Y"
0Z"
1["
0\"
0]"
1^"
0_"
0`"
1a"
0b"
0c"
1d"
0e"
0f"
1g"
0h"
0i"
1j"
1k"
1l"
1m"
0n"
1o"
0p"
$end
#50000
b10000000000000000000000000000111 #
b10000000000000000000000000000011 #
b10000000000000000000000000000001 #
b10000000000000000000000000000000 #
b0 $
b10000000000000 $
b10010000000000 $
b10011000000000 $
b10011100000000 $
b10011100010000 $
1-!
1<!
1B!
1J!
1\!
0l"
0z
0}
0$!
0(!
02!
0@!
0G!
0C!
0N!
0K!
0`!
0]!
0m"
1/!
1?!
0|
0#!
0'!
0+!
0Z
0Y
0X
0W
1_
1[
06!
0H!
0T!
0f!
1@
1<
0D
0C
0B
0A
13!
1R!
1L!
1d!
1^!
1n"
1v
1d
1e
1a
1b
1\
0:!
0Z!
0m!
1?
19
1:
16
17
1%
17!
0L!
1X!
1j!
1f
1c
0a
1]
0>!
0n!
1>
0:
18
15
1;!
0^!
0d
1^
0D"
1=
07
0?!
1B"
1<"
16"
10"
1*"
1$"
1|!
1t!
1o!
1g
1h
1i
1j
1k
1l
1m
1n
1o
0_
0o"
0<
1,
1-
1.
1/
10
11
12
13
14
0n"
1h"
1b"
1\"
1V"
1P"
1H"
1p
1q
1r
1s
1t
1u
0v
0%
1&
1'
1(
1)
1*
1+
1p"
1y
1G
#110000
b0 #
b10000000000000 #
b10010000000000 #
b10011000000000 #
b10011100000000 #
b10011100010000 #
b1000000000000000010011100010000 $
b1010000000000000010011100010000 $
b1010100000000000010011100010000 $
b1010100000010000010011100010000 $
b1010100000010100010011100010000 $
b1010100000010110010011100010000 $
b1010100000010111010011100010000 $
b1010100000010111110011100010000 $
b1010100000010111110010100010000 $
b1010100000010111110010000010000 $
b1010100000010111110010000000000 $
0-!
0<!
0B!
1b!
1h!
1k!
1r!
1""
1N"
1Z"
1f"
1,!
1=!
1A!
1I!
1[!
0k"
12!
1E!
1@!
1G!
1F!
0c!
0i!
0p!
0w!
0s!
0&"
0#"
0R"
0O"
0^"
0["
0j"
0g"
1H!
1K!
1]!
1m"
0o!
0p"
0y
0g
16!
1M!
0x!
0,"
0X"
0d"
1N!
04
0G
03!
1D!
0d!
0j!
0t!
0$"
0P"
0\"
1n"
0h"
1^!
1d
0u
1v
0s
0q
0j
0h
0f
0e
1`
0\
1:!
1S!
0~!
02"
1T!
0?
1;
06
05
03
01
0*
0(
1%
0&
17
07!
0R!
0b
0]
1>!
1Y!
08"
1Z!
0>
09
0;!
0X!
0c
0^
1_!
0>"
1`!
0=
08
0^!
1?!
1_
0d
07
1<
1d!
1e
16
#170000
b1000000000000000010011100010000 #
b1100000000000000010011100010000 #
b1110000000000000010011100010000 #
b1110000000010000010011100010000 #
b1110000000011000010011100010000 #
b1110000000011100010011100010000 #
b1110000000011110010011100010000 #
b1110000000011110110011100010000 #
b1110000000011110110011101010000 #
b1010101000010111110010000000000 $
b1010101001010111110010000000000 $
b1010101001110111110010000000000 $
b1010101001110111110110000000000 $
b11010101001110111110110000000000 $
b1110000000011110100011101010000 #
b1110000000011110100001101010000 #
b1110000000011110100001001010000 #
b1110000000011110100001001000000 #
b10010101001110111110110000000000 $
b10000101001110111110110000000000 $
b10000001001110111110110000000000 $
b10000001001100111110110000000000 $
b10000001001100011110110000000000 $
b10000001001100010110110000000000 $
b10000001001100010010110000000000 $
b10000001001100010010110100000000 $
1<!
1P!
0b!
0h!
0r!
0""
1("
1."
1@"
0N"
0Z"
0f"
1l"
0,!
14!
0=!
0I!
0[!
1a!
1l!
1q!
1y!
1!"
1Y"
1_"
1e"
0E!
0@!
0T!
0S!
0Q!
1f!
1e!
1i!
1w!
1v!
1&"
1%"
0)"
0/"
0C"
0A"
1R"
1O"
1^"
1]"
1j"
1i"
0m"
0N!
0M!
0K!
0`!
0_!
0]!
1x!
1~!
1}!
0{!
1d"
1c"
0a"
0/!
17!
1o!
1g
1]
0[
0Z!
0Y!
1m!
0L"
1X"
1o"
0@
1>
14
0D!
1X!
00"
0B"
1P"
1L!
0d!
1^!
1$"
1h"
1u
1j
1d
0e
1a
1q
0o
0l
1c
0`
1n!
0R"
0;
18
0/
0,
1*
1:
06
17
11
1&
0^!
1p"
1y
0d
0X"
07
1G
1t!
0o!
0g
1h
13
04
#220000
b0 !
b1111000000011110100001001000000 #
b1111100000011110100001001000000 #
b10100001001100010010110100000000 $
b10101001001100010010110100000000 $
b10101011001100010010110100000000 $
b10101011001100010000110100000000 $
b10101011001100010000100100000000 $
b1111100000011110100000001000000 #
b10101011001100000000100100000000 $
b1111100000001110100000001000000 #
b1111100000000110100000001000000 #
b1111100000000010100000001000000 #
b1111100000000000100000001000000 #
b1111100000000000000000001000000 #
b1111100000000000000000000000000 #
b10101010001100000000100100000000 $
b10101010000100000000100100000000 $
b10101010000100000000000100000000 $
b101010000100000000000100000000 $
b1101010000100000000000100000000 $
b1111010000100000000000100000000 $
b1111110000100000000000100000000 $
b1111110000100000000000000000000 $
0<!
0J!
0P!
0\!
0k!
0."
0@"
1F"
1N"
1T"
1Z"
1`"
1f"
0l"
04!
0A!
0a!
0l!
0q!
0y!
0!"
1M"
1S"
0~
1R"
1Q"
0O"
1X"
1W"
0U"
0:!
0H!
0F!
0f!
0e!
0x!
0v!
0~!
0}!
0&"
0%"
0;"
05"
1,"
1+"
1)"
0w!
0n!
0i!
0W!
0G!
0>!
06!
02!
0.!
0*!
0&!
0!!
1o!
0t!
1;!
13!
1/!
1+!
1'!
1#!
1X
1Y
1Z
1[
1\
1^
0h
1g
0m!
0,"
0+"
14
03
1=
1?
1@
1A
1B
1C
0P"
1\"
0;!
0L!
0|!
0$"
0<"
06"
10"
0o!
0X!
0?!
07!
03!
0/!
0+!
0'!
0#!
0X
0Y
0Z
0[
0\
0]
0_
0c
0g
1l
0m
0n
0j
0i
0a
0^
1s
0q
0*
1(
0=
0:
02
01
0-
0.
1/
04
08
0<
0>
0?
0@
0A
0B
0C
00"
0l
0/
#280000
b1111110100100000000000000000000 $
b1111110110100000000000000000000 $
b11111100000000000000000000000000 #
b11101100000000000000000000000000 #
b1111110110110000000000000000000 $
b11100100000000000000000000000000 #
b11100000000000000000000000000000 #
b1011110110110000000000000000000 $
b1010110110110000000000000000000 $
b1010100110110000000000000000000 $
b1010101110110000000000000000000 $
b1010101111110000000000000000000 $
b11010101111110000000000000000000 $
b10010101111110000000000000000000 $
b10000101111110000000000000000000 $
b10000001111110000000000000000000 $
0M"
0S"
0Y"
1k"
1""
1."
14"
1:"
1@"
0F"
0N"
0T"
0Z"
0`"
0f"
1l"
0R"
0Q"
0X"
0W"
0^"
0]"
1#"
1/"
15"
1;"
1C"
1A"
0K"
0G"
1a"
1g"
0p"
0y
0d"
0c"
0G
0V"
0\"
1$"
10"
16"
1<"
0H"
1B"
0h"
0u
1o
0p
1n
1m
1l
1j
0s
0r
0j"
0i"
0)
0(
11
1/
1.
1-
0+
1,
0&
1h"
1u
0o"
1&
0n"
0v
0%
1p"
1y
1G
#350000
b11100000000000001000000000000000 #
b10000001111111000000000000000000 $
b10100000000000001000000000000000 #
b10000000000000001000000000000000 #
b10000001111011000000000000000000 $
b10000001111011100000000000000000 $
b10000001111011101000000000000000 $
b10000001111011101100000000000000 $
b10000001111011111100000000000000 $
b10000000000001001000000000000000 #
b10000000000001101000000000000000 #
b10000000000001111000000000000000 #
b10000001011011111100000000000000 $
b1111000000000000000 #
b10000001011001111100000000000000 $
b10000000011001111100000000000000 $
b10000000010001111100000000000000 $
1b!
1h!
1k!
1r!
1z!
0""
0("
0."
0:"
0@"
1g!
1l!
1q!
1y!
0_"
0e"
0k"
1c!
1n!
1u!
1p!
1w!
1v!
1~!
1}!
0#"
0)"
0/"
0;"
0C"
0A"
1x!
0a"
0g"
1m"
0p"
0y
0G
1d!
0B"
0<"
00"
0*"
1|!
1t!
1o!
0b"
0h"
1n"
1v
0u
0t
1g
1h
1i
0k
0l
0n
0o
1e
16
0,
0-
0/
00
12
13
14
0'
0&
1%
#420000
b1 !
b10000000000001111100000000000000 $
b1110000000000000000 #
b10000000000000111100000000000000 $
b10000000000000011100000000000000 $
b10000000000000010100000000000000 $
b10000000000000010000000000000000 $
b10000000000000000000000000000000 $
b110000000000000000 #
b10000000000000000 #
b0 #
b10000000000000000000000000000000 #
0g!
0l!
0q!
0y!
1k"
0b!
0h!
0k!
0r!
0z!
04"
1~
0n!
1i!
0u!
1s!
1{!
1g"
1a"
1["
1U"
1O"
1K"
1G"
1C"
1A"
1;"
1/"
1)"
1&"
1%"
1#"
1]!
1W!
1Q!
1K!
1G!
1C!
1@!
1!!
0o!
1?!
1;!
17!
13!
1/!
1+!
1'!
1#!
1X
1Y
1Z
1[
1\
1]
1^
1_
0g
0v!
1L"
1,"
1+"
1H!
1&!
04
1<
1=
1>
1?
1@
1A
1B
1C
1B"
1<"
10"
0$"
0|!
1o!
1j!
1h"
1b"
1\"
1V"
1P"
1H"
1^!
1X!
1R!
1L!
1D!
0#!
0X
1`
1a
1b
1c
1d
1p
1q
1r
1s
1t
1u
1f
1g
0i
0j
1l
1n
1o
0}!
1R"
12"
11"
1N!
1*!
1,
1-
1/
01
02
14
15
1&
1'
1(
1)
1*
1+
17
18
19
1:
1;
0C
1|!
00"
0'!
0Y
0l
1i
0%"
1X"
18"
17"
1T!
1.!
12
0/
0B
1$"
06"
0+!
0Z
0m
1j
0+"
1^"
1>"
1="
1Z!
12!
11
0.
0A
1*"
0<"
0/!
0[
0n
1k
01"
1d"
1D"
1`!
16!
10
0-
0@
10"
0B"
03!
0\
0o
1l
07"
1j"
1f!
1:!
1/
0,
0?
16"
0h"
0b"
0\"
0V"
0P"
0H"
07!
0]
0p
0q
0r
0s
0t
0u
1m
0="
1o"
1>!
1.
0&
0'
0(
0)
0*
0+
0>
1<"
0n"
0;!
0^
0v
1n
0D"
1m!
1-
0%
0=
1B"
0j!
0d!
0^!
0X!
0R!
0L!
0D!
0?!
0_
0`
0a
0b
0c
0d
0e
0f
1o
0o"
1n!
1,
05
06
07
08
09
0:
0;
0<
1n"
1h"
1b"
1\"
1V"
1P"
1H"
1p
1q
1r
1s
1t
1u
1v
1D"
1%
1&
1'
1(
1)
1*
1+
0B"
0<"
06"
00"
0*"
0$"
0|!
0t!
0o!
0g
0h
0i
0j
0k
0l
0m
0n
0o
1o"
0,
0-
0.
0/
00
01
02
03
04
0n"
0h"
0b"
0\"
0V"
0P"
0H"
0p
0q
0r
0s
0t
0u
0v
0%
0&
0'
0(
0)
0*
0+
